{
	"browserSync": {
		"proxy": "http://khoja.local",
		"port": "3000",
		"host": "localhost",
		"files": ["./**/*.php"],
		"reloadOnRestart": true,
		"open": "ui"
	},
	
	"js": {
		"input": {
			"path": "./webroot/js/src",
			"name": "*.es6"
		},
		"output": {
			"path": "./webroot/js/dist",
			"name": "*"
		},
		"includes": [],
		"jshint": true,
		"babel": true,
		"concat": false,
		"uglify": true,
		"maps": false
	},
	
	"scss": {
		"input": {
			"path": "./webroot/scss/",
			"name": "*"
		},
		"output": {
			"path": "./webroot/css/"
		},
		"includes" : [],
		"autoprefixer": "bootstrap3",
		"minify": false,
		"maps": false
	},
	
	"fonts": {
		"output": {
			"path": "./webroot/fonts/"
		},
		"includes": [
			"./node_modules/font-awesome/fonts/*.{otf,eot,eof,ttf,woff,woff2,svg}",
			"./node_modules/bootstrap/fonts/*.{otf,eot,eof,ttf,woff,woff2,svg}",
			"./node_modules/open-sans-fonts/open-sans/**/*.{otf,eot,eof,ttf,woff,woff2,svg}",
			{
				"path": "./scss/icomoon/fonts/*",
				"subdir": "icomoon"
			}
		]
	}
	
}